{
    "server":"0.0.0.0",
    "server_ipv6":"::",
    "local_address":"127.0.0.1",
    "local_port":1080,
    "port_password":{
        "53427":{"protocol":"auth_chain_b", "method":"none", "password":"gakki.gq", "obfs_param":""}
    },
    "timeout":60,
    "method":"aes-256-cfb",
    "protocol": "auth_sha1_compatible",
    "protocol_param": "",
    "obfs": "tls1.2_ticket_auth_compatible",
    "obfs_param": "3",
    "redirect": "",
    "dns_ipv6": false,
    "fast_open": true,
    "workers": 1
}